
11 byte:
F0 -> Inizio messaggio

   MSB       LSB
0000_0xxx 0xxx_xxxx  2 byte (utilizzati solo 10 bit) Freno Anteriore ( 0 - 1023 ) 
0000_0yyy 0yyy_yyyy  2 byte (utilizzati solo 10 bit) Freno Posteriore ( 0 - 1023 )
0000_0zzz 0zzz_zzzz  2 byte (utilizzati solo 10 bit) Acceleratore ( 0 - 1023 )
0000_0aaa 0aaa_aaaa  2 byte (utilizzati solo 10 bit) angolo ( 0 - 1023 )
0000_00id            1 byte (utilizzati solo 2 bit)  incrementa marcia (0000_0010), decrementa marcia (0000_0001)
F7 -> Fine messaggio





/////////////////////////////////////////

ERRATO!!!!!!!!!!!!!!!!!!!!!!!!!!!
////////////////////////////////////////

FO 0000_0xxx 0xxx_xxxx 0000_0yyy 0yyy_yyyy 0000_0zzz 0zzz_zzzz 0000_0aaa 0aaa_aaaa 0000_00id F7


  | Acceleratore      | Freno Anteriore   | Freno Posteriore  | Angolo            | Marcia  |  
  
  
11 byte:
F0 -> Inizio messaggio

   MSB       LSB
0000_0xxx 0xxx_xxxx  2 byte (utilizzati solo 10 bit)  acceleratore ( 0 - 1023 )
0000_0yyy 0yyy_yyyy  2 byte (utilizzati solo 10 bit) freno anteriore ( 0 - 1023 )
0000_0zzz 0zzz_zzzz  2 byte (utilizzati solo 10 bit) freno posteriore ( 0 - 1023 )
0000_0aaa 0aaa_aaaa  2 byte (utilizzati solo 10 bit) angolo ( 0 - 1023 )
0000_00id            1 byte (utilizzati solo 2 bit)  incrementa marcia (0000_0010), decrementa marcia (0000_0001)
F7 -> Fine messaggio

